kate,kate,kate@demo.com,kate
emma,emma,emma@demo.com,emma
jason,jason,jason@demo.com,jason
jawed,jawed,jawed@demo.com,jawed
harsha,harsha,harsha@demo.com,harsha
rakesh,rakesh,rakesh@demo.com,rakesh
ashish,ashish,ashish@demo.com,ashish
vaibhav,vaibhav,vaibhav@demo.com,vaibhav
archana,archana,archana@demo.com,archana
sushma,sushma,sushma@demo.com,sushma
ritu,ritu,ritu@demo.com,ritu
aradhana,aradhana,aradhana@demo.com,aradhana
ayesha,ayesha,ayesha@demo.com,ayesha
yogesh,yogesh,yogesh@demo.com,yogesh
rajesh,rajesh,rajesh@demo.com,rajesh
tanay,tanay,tanay@demo.com,tanay
sonali,sonali,sonali@demo.com,sonali
sharyu,sharyu,sharyu@demo.com,sharyu
sanjay,sanjay,sanjay@demo.com,sanjay
manish,manish,manish@demo.com,manish
rahul,rahul,rahul@demo.com,rahul
